Detecting Spreadsheet Smells with xlex()
…
tokens <-

  sheet %>%

  filter(!is.na(formula)) %>%

  select(row, col, formula) %>%

  mutate(tokens = map(formula, xlex)) %>%

  select(-formula)

tokens

## # A tibble: 154 x 3
##      row   col tokens          
##    <int> <int> <list>          
##  1     8     4 <tibble [9 × 3]>
##  2     9     4 <tibble [7 × 3]>
##  3    10     4 <tibble [7 × 3]>
##  4    12     4 <tibble [7 × 3]>
##  5    13     4 <tibble [7 × 3]>
##  6    14     3 <tibble [4 × 3]>
##  7    14     4 <tibble [4 × 3]>
##  8    14     5 <tibble [4 × 3]>
##  9    14     6 <tibble [4 × 3]>
## 10    17     4 <tibble [7 × 3]>
## # ... with 144 more rows

Then we can unnest the data frames and filter for tokens that are constants, to find out which cells have constants in their formulas.

constants <-

  tokens %>%

  unnest(tokens) %>%

  filter(type %in% c("error", "bool", "number", "text"))

constants

## # A tibble: 201 x 5
##      row   col level type   token
##    <int> <int> <int> <chr>  <chr>
##  1     8     4     1 number 7    
##  2     8     4     0 number 12   
##  3     8     4     0 number 48000
##  4     9     4     1 number 7    
##  5     9     4     0 number 12   
##  6    10     4     1 number 7    
##  7    10     4     0 number 12   
##  8    12     4     1 number 7    
##  9    12     4     0 number 12   
## 10    13     4     1 number 7    
## # ... with 191 more rows
…
  distinct(row, col) %>%

  mutate(has_constant = TRUE) %>%

  right_join(sheet, by = c("row", "col")) %>%

  filter(!is_blank) %>%

  select(row, col, has_constant) %>%

  replace_na(list(has_constant = FALSE))

has_constants

## # A tibble: 412 x 3
##      row   col has_constant
##    <int> <int> <lgl>       
##  1     1     1 F           
##  2     2     1 F           
##  3     3     3 F           
##  4     3     4 F           
##  5     3     5 F           
##  6     3     6 F           
##  7     4     3 F           
##  8     4     4 F           
##  9     4     5 F           
## 10     4     6 F           
## # ... with 402 more rows
…
    filter(!is.na(formula)) %>%

    mutate(tokens = map(formula, xlex)) %>%

    select(row, col, tokens) %>%

    unnest(tokens) %>%

    filter(level == max(level)) %>%

    distinct(row, col, level)

deepest

## # A tibble: 48 x 3
##      row   col level
##    <int> <int> <int>
##  1   171     2     7
##  2   171     3     7
##  3   171     4     7
##  4   171     5     7
##  5   171     6     7
##  6   171     7     7
##  7   171     8     7
##  8   171     9     7
##  9   171    10     7
## 10   171    11     7
## # ... with 38 more rows
…
